{
  "connection": "default",
  "collectionName": "",
  "info": {
    "name": "headingtoken",
    "description": ""
  },
  "options": {
    "timestamps": true
  },
  "attributes": {
    "token": {
      "required": true,
      "unique": true,
      "type": "string"
    }
  }
}